<?xml version="1.0" encoding="UTF-8" standalone="no"?>
<svg width="47px" height="57px" viewBox="0 0 47 57" version="1.1" xmlns="http://www.w3.org/2000/svg" xmlns:xlink="http://www.w3.org/1999/xlink" xmlns:sketch="http://www.bohemiancoding.com/sketch/ns">
    <!-- Generator: Sketch 3.1.1 (8761) - http://www.bohemiancoding.com/sketch -->
    <title>Imported Layers 4</title>
    <desc>Created with Sketch.</desc>
    <defs>
        <path id="path-1" d="M0,0 L47,0 L47,57 L0,57 L0,0 Z"></path>
    </defs>
    <g id="Page-1" stroke="none" stroke-width="1" fill="none" fill-rule="evenodd" sketch:type="MSPage">
        <g id="Contact-Page-Mobile" sketch:type="MSArtboardGroup" transform="translate(-38.000000, -194.000000)">
            <g id="Imported-Layers-4" sketch:type="MSLayerGroup" transform="translate(38.000000, 194.000000)">
                <g id="Group-3">
                    <mask id="mask-2" sketch:name="Clip 2" fill="white">
                        <use xlink:href="#path-1"></use>
                    </mask>
                    <g id="Clip-2"></g>
                    <path d="M6.41569315,12.5274725 L6.4382274,12.5274725 L6.4382274,54.4945055 L6.41569315,54.4945055 C4.43783014,54.4945055 2.5752137,51.7284396 2.5752137,49.5843626 L2.5752137,11.3398681 C3.64655616,12.120956 4.97607671,12.5274725 6.41569315,12.5274725 L6.41569315,12.5274725 Z M26.3971315,12.5274725 L44.4245288,12.5274725 L44.4245288,54.4945055 L9.01356986,54.4945055 L9.01356986,12.5274725 L12.8765836,12.5274725 L15.451926,12.5274725 L23.821789,12.5274725 L26.3971315,12.5274725 Z M42.4930219,0 L6.41569315,0 C2.87781644,0 -0.000128767123,2.79989011 -0.000128767123,6.24181319 L-0.000128767123,6.34265934 C-0.000128767123,6.46981319 0.00373424658,6.59571429 0.011460274,6.72098901 C0.00373424658,6.77610989 -0.000128767123,6.83248352 -0.000128767123,6.89010989 L-0.000128767123,50.6573407 C-0.000128767123,50.9298132 0.0887205479,51.1803626 0.240021918,51.3858132 C0.991378082,54.2708901 3.42572055,57 6.41569315,57 L45.7122,57 C46.4229945,57 46.9998712,56.4387692 46.9998712,55.7472527 L46.9998712,11.3317253 C46.9998712,10.6395824 46.4229945,10.021978 45.7122,10.021978 L25.4732274,10.021978 L25.1094603,10.021978 L14.1642548,10.021978 L13.8004877,10.021978 L8.08902192,10.021978 C7.97313151,10.021978 7.85273425,9.96497802 7.72525479,9.96497802 C7.59777534,9.96497802 7.47802192,10.021978 7.36213151,10.021978 L6.41569315,10.021978 C4.29811781,10.021978 2.5752137,8.4028022 2.5752137,6.34265934 L2.5752137,6.24181319 C2.5752137,4.18167033 4.29811781,2.50549451 6.41569315,2.50549451 L42.4930219,2.50549451 C43.2038164,2.50549451 43.7806932,1.94426374 43.7806932,1.25274725 C43.7806932,0.561230769 43.2038164,0 42.4930219,0 L42.4930219,0 Z" id="Fill-1" fill="#FFFFFF" sketch:type="MSShapeGroup" mask="url(#mask-2)"></path>
                </g>
                <path d="M45.0684932,5.01098901 L7.08219178,5.01098901 C6.37139726,5.01098901 5.79452055,5.57221978 5.79452055,6.26373626 C5.79452055,6.95525275 6.37139726,7.51648352 7.08219178,7.51648352 L45.0684932,7.51648352 C45.7792877,7.51648352 46.3561644,6.95525275 46.3561644,6.26373626 C46.3561644,5.57221978 45.7792877,5.01098901 45.0684932,5.01098901" id="Fill-4" fill="#FFFFFF" sketch:type="MSShapeGroup"></path>
                <path d="M27.7131959,38.5073209 C24.0568534,38.5073209 20.4610315,36.8123538 18.2436616,33.6629473 C17.4324288,32.5097934 16.8574836,31.2407604 16.5342781,29.8909253 C16.3391959,29.0753868 16.8613466,28.2598484 17.7002644,28.0694308 C18.5385384,27.8771341 19.3774562,28.3870022 19.5725384,29.203167 C19.8075384,30.1846945 20.2260315,31.1079692 20.8177164,31.9479363 C22.0757712,33.7356066 23.9737986,34.9394967 26.1634836,35.337244 C28.3538123,35.736244 30.5705384,35.2808703 32.4080452,34.0569363 C34.1315932,32.9087934 35.3413603,31.1875187 35.8158671,29.2119363 C36.0115932,28.3957714 36.850511,27.8865297 37.6894288,28.0794527 C38.5283466,28.2698703 39.0492096,29.0860352 38.8534836,29.9022 C38.2012781,32.6187824 36.5382507,34.9833429 34.1702233,36.5605516 C32.1962233,37.8765626 29.9434425,38.5073209 27.7131959,38.5073209" id="Fill-6" fill="#FFFFFF" sketch:type="MSShapeGroup"></path>
            </g>
        </g>
    </g>
</svg>