<?xml version="1.0" encoding="utf-8"?>
<!-- Generator: Adobe Illustrator 15.0.2, SVG Export Plug-In . SVG Version: 6.00 Build 0)  -->
<!DOCTYPE svg PUBLIC "-//W3C//DTD SVG 1.1//EN" "http://www.w3.org/Graphics/SVG/1.1/DTD/svg11.dtd">
<svg version="1.1" id="Ebene_1" xmlns:sketch="http://www.bohemiancoding.com/sketch/ns"
	 xmlns="http://www.w3.org/2000/svg" xmlns:xlink="http://www.w3.org/1999/xlink" x="0px" y="0px" width="170px" height="115px"
	 viewBox="0 0 170 115" enable-background="new 0 0 170 115" xml:space="preserve">
<title>Imported Layers + Rectangle 93</title>
<desc>Created with Sketch.</desc>
<g id="About-Page" transform="translate(-469.000000, -352.000000)" sketch:type="MSArtboardGroup">
	<g id="Imported-Layers-_x2B_-Rectangle-93" transform="translate(439.000000, 354.000000)" sketch:type="MSLayerGroup">
		<g id="Imported-Layers" transform="translate(33.000000, 0.000000)" sketch:type="MSShapeGroup">
			<path id="Fill-1" fill="#FFFFFF" stroke="#FFFFFF" stroke-width="4" d="M103.954,23.648c-5.112,0.434-8.839-1.436-10.762-2.707
				c6.56-5.152,16.916-10.534,32.428-12.032C118.43,18.073,111.15,23.028,103.954,23.648 M97.631,7.801
				c3.119-2.035,7.271-2.735,11.519-2.735c3.913,0,7.901,0.595,11.234,1.291c-12.758,1.958-21.818,6.421-28.057,10.976
				C92.773,13.004,94.552,9.804,97.631,7.801 M124.893,63.479c0,23.141-25.093,43.89-32.615,43.89
				c-7.544,0-10.171-2.601-10.178-2.606c-0.321-0.354-0.813-0.554-1.322-0.562c-0.01-0.002-0.02-0.002-0.029-0.002
				c-0.499,0-0.984,0.204-1.313,0.544c-0.028,0.025-2.653,2.626-10.198,2.626c-7.524,0-32.614-20.746-32.614-43.89
				c0-16.969,9.367-27.099,25.06-27.099c5.588,0,11.778,1.297,18.394,3.856c0.039,0.016,0.082,0.011,0.121,0.023
				c0.045,0.014,0.077,0.043,0.125,0.054c0.142,0.033,0.284,0.049,0.425,0.049c0.234,0.001,0.47-0.039,0.69-0.126
				C88.052,37.68,94.24,36.38,99.83,36.38C115.523,36.38,124.893,46.51,124.893,63.479 M130.83,6.757
				c-0.039-0.171-0.105-0.34-0.206-0.496c-0.003-0.002-0.003-0.005-0.003-0.006c-0.188-0.287-0.475-0.525-0.838-0.662
				c-0.004-0.001-0.004-0.001-0.008-0.001c-0.01-0.004-0.021-0.009-0.031-0.014c-1.004-0.354-22.63-7.851-34.141-0.354
				c-4.703,3.062-7.014,8.104-6.87,14.994c-2.496,2.205-4.321,4.284-5.646,6c-2.216-8.944-10.18-11.532-10.291-11.564
				c-0.906-0.275-1.898,0.17-2.204,1c-0.302,0.832,0.19,1.728,1.102,2.003c0.118,0.036,11.249,3.659,7.784,18.982
				c-6.316-2.242-12.306-3.424-17.797-3.424c-17.607,0-28.543,11.599-28.543,30.268c0,24.17,26.268,47.056,36.098,47.056
				c6.251,0,9.786-1.56,11.521-2.681c1.734,1.121,5.268,2.681,11.521,2.681c9.827,0,36.1-22.886,36.1-47.056
				c0-18.67-10.938-30.268-28.543-30.268c-5.175,0-10.801,1.068-16.718,3.062c0.339-1.736,0.496-3.329,0.521-4.812
				c0.463-0.826,2.548-4.311,6.969-8.335c2.215,1.574,7.003,4.226,13.603,3.68c9.012-0.746,17.881-7.097,26.363-18.877
				c0.004-0.008,0.01-0.016,0.017-0.023c0.124-0.177,0.203-0.37,0.244-0.567C130.872,7.144,130.872,6.946,130.83,6.757"/>
		</g>
	</g>
</g>
</svg>
